…
``` r
## left_join is saying you are joining to the table being piped
```

``` r
cod <- fish %>% 
    select(stockid, areaid, tsyear, tsvalue, tsid, commonname, scientificname, country, areaname) %>%
  filter(commonname == 'Atlantic cod', tsid == 'TCbest-MT') %>%
  distinct()

cod %>% count(areaname)
```

    ## # A tibble: 28 × 2
    ##    areaname                  n
    ##    <chr>                 <int>
    ##  1 Celtic Sea              103
    ##  2 Eastern Baltic          187
    ##  3 Eastern Scotian Shelf    45
    ##  4 Faroe Bank               88
    ##  5 Faroe Plateau           142
    ##  6 Flemish Cap              53
    ##  7 Georges Bank             46
    ##  8 Gulf of Maine            73
    ##  9 Iceland Grounds         146
    ## 10 ICES 3a(west)-4-7d      379
    ## # … with 18 more rows
…
``` r
cod_totals %>% mutate(collapsed = (total_catch < .10 * cummax(total_catch)) )
```

    ## # A tibble: 168 × 3
    ##    tsyear total_catch collapsed
    ##     <dbl>       <dbl> <lgl>    
    ##  1   1850      133000 FALSE    
    ##  2   1851      125000 FALSE    
    ##  3   1852      120000 FALSE    
    ##  4   1853      117000 FALSE    
    ##  5   1854      104000 FALSE    
    ##  6   1855      132000 FALSE    
    ##  7   1856      151000 FALSE    
    ##  8   1857      169000 FALSE    
    ##  9   1858      134000 FALSE    
    ## 10   1859      154000 FALSE    
    ## # … with 158 more rows
…
